…
    pulsar <- readr::read_csv("cp1919.csv")

    ## Rows: 24000 Columns: 3
    ## ── Column specification ────────────────────────────────────────────────────────
    ## Delimiter: ","
    ## dbl (3): x, y, z
    ## 
    ## ℹ Use `spec()` to retrieve the full column specification for this data.
    ## ℹ Specify the column types or set `show_col_types = FALSE` to quiet this message.

    pulsar

    ## # A tibble: 24,000 × 3
    ##        x     y     z
    ##    <dbl> <dbl> <dbl>
    ##  1     1     1 -0.81
    ##  2     2     1 -0.91
    ##  3     3     1 -1.09
    ##  4     4     1 -1   
    ##  5     5     1 -0.59
    ##  6     6     1 -0.82
    ##  7     7     1 -0.43
    ##  8     8     1 -0.68
    ##  9     9     1 -0.71
    ## 10    10     1 -0.27
    ## # ℹ 23,990 more rows
…
